<?xml version="1.0" encoding="utf-8"?>
<!-- Generator: Adobe Illustrator 16.0.3, SVG Export Plug-In . SVG Version: 6.00 Build 0)  -->
<!DOCTYPE svg PUBLIC "-//W3C//DTD SVG 1.1//EN" "http://www.w3.org/Graphics/SVG/1.1/DTD/svg11.dtd">
<svg version="1.1" id="Layer_1" xmlns="http://www.w3.org/2000/svg" xmlns:xlink="http://www.w3.org/1999/xlink" x="0px" y="0px"
	 width="508px" height="203.15px" viewBox="0 0 508 203.15" enable-background="new 0 0 508 203.15" xml:space="preserve">
<g>
	<path fill-rule="evenodd" clip-rule="evenodd" fill="#676767" d="M467.7,106.6V86.7h9.05V106.6c0,3.101,1.066,5.733,3.2,7.9
		c2.133,2.233,4.717,3.35,7.75,3.35c3,0,5.583-1.1,7.75-3.3c2.133-2.2,3.2-4.85,3.2-7.95c0-0.333-0.017-0.683-0.051-1.05V86.7h9.051
		v36.149c-0.101,6.167-2.084,11.301-5.95,15.4c-3.9,4.1-8.467,6.15-13.7,6.15c-3.967,0-7.816-1.301-11.55-3.9
		c-3.467-2.434-6.017-5.566-7.65-9.4l8.5-3.199c0.967,2.1,2.4,3.816,4.3,5.149c2.2,1.533,4.334,2.3,6.4,2.3
		c2.8,0,5.25-1.199,7.35-3.6c1.9-2.2,2.967-4.917,3.2-8.15c-3.3,2.167-6.916,3.25-10.85,3.25c-5.533,0-10.25-1.983-14.15-5.949
		C469.65,116.967,467.7,112.2,467.7,106.6z M413.35,85.85c5.9,0,10.75,2.583,14.551,7.75c3.833-5.167,8.699-7.75,14.6-7.75
		c5.233,0,9.717,2.1,13.45,6.3c3.7,4.2,5.55,9.267,5.55,15.2v22.4h-8.85v-22.4c0-3.466-1-6.45-3-8.95
		c-1.967-2.467-4.351-3.7-7.15-3.7s-5.2,1.233-7.2,3.7c-1.967,2.5-2.95,5.484-2.95,8.95v22.4h-8.85v-22.4c0-3.466-1-6.45-3-8.95
		c-1.967-2.467-4.35-3.7-7.15-3.7c-2.8,0-5.183,1.233-7.149,3.7c-2,2.5-3,5.484-3,8.95v22.4h-8.851V86.7h8.851v2.45
		C406.267,86.95,409.65,85.85,413.35,85.85z M256.25,99.25c-2.433,2.533-3.65,5.583-3.65,9.15c0,3.533,1.217,6.566,3.65,9.1
		c2.467,2.5,5.434,3.75,8.9,3.75c3.433,0,6.383-1.25,8.85-3.75c2.467-2.533,3.7-5.566,3.7-9.1c0-3.567-1.233-6.617-3.7-9.15
		s-5.417-3.8-8.85-3.8C261.684,95.45,258.717,96.717,256.25,99.25z M249.85,92.9c4.233-4.3,9.333-6.45,15.3-6.45
		c4.6,0,8.783,1.367,12.55,4.1V72.7h9.05v57.1h-9.05v-3.649c-3.767,2.8-7.95,4.199-12.55,4.199c-5.967,0-11.067-2.166-15.3-6.5
		c-4.2-4.267-6.3-9.416-6.3-15.449C243.55,102.333,245.65,97.167,249.85,92.9z M298.85,72.35c1.367,0,2.517,0.467,3.45,1.4
		c0.934,0.967,1.4,2.117,1.4,3.45c0,1.367-0.467,2.533-1.4,3.5c-0.934,0.933-2.083,1.4-3.45,1.4c-1.366,0-2.517-0.467-3.449-1.4
		c-0.967-0.967-1.45-2.133-1.45-3.5c0-1.333,0.483-2.483,1.45-3.45C296.333,72.817,297.483,72.35,298.85,72.35z M294.4,86.7h8.85
		v43.05h-8.85V86.7z M349.05,72.35c1.367,0,2.517,0.467,3.45,1.4c0.934,0.967,1.4,2.117,1.4,3.45c0,1.367-0.467,2.533-1.4,3.5
		c-0.934,0.933-2.083,1.4-3.45,1.4c-1.366,0-2.517-0.467-3.45-1.4c-0.966-0.967-1.449-2.133-1.449-3.5
		c0-1.333,0.483-2.483,1.449-3.45C346.533,72.817,347.684,72.35,349.05,72.35z M344.6,86.7h8.851v43.05H344.6V86.7z M370.65,96.55
		c-0.967,0.833-1.45,1.817-1.45,2.95c0,1.067,0.316,1.867,0.95,2.4c0.733,0.534,2.466,1.167,5.199,1.9
		c3.667,1.066,6.4,2.233,8.2,3.5c3.066,2.233,4.601,5.434,4.601,9.601c0,3.666-1.367,6.783-4.101,9.35
		c-2.733,2.634-6.05,3.95-9.95,3.95c-3.833,0-7.116-1.316-9.85-3.95c-2.733-2.566-4.1-5.684-4.1-9.35h9.05
		c0,1.166,0.483,2.166,1.45,3c0.966,0.8,2.116,1.199,3.449,1.199c1.4,0,2.584-0.399,3.551-1.199c0.966-0.834,1.449-1.834,1.449-3
		c0-1.101-0.333-1.9-1-2.4c-0.767-0.566-2.517-1.233-5.25-2c-3.699-1.033-6.416-2.184-8.149-3.45c-3.033-2.2-4.55-5.383-4.55-9.55
		c0-3.633,1.366-6.75,4.1-9.35s6.017-3.9,9.85-3.9c3.9,0,7.217,1.3,9.95,3.9s4.101,5.717,4.101,9.35H379.1
		c0-1.133-0.483-2.117-1.449-2.95c-0.967-0.8-2.15-1.2-3.551-1.2C372.767,95.35,371.616,95.75,370.65,96.55z M319.95,101.9
		c0.733,0.534,2.467,1.167,5.2,1.9c3.666,1.066,6.399,2.233,8.199,3.5c3.067,2.233,4.601,5.434,4.601,9.601
		c0,3.666-1.367,6.783-4.101,9.35c-2.733,2.634-6.05,3.95-9.949,3.95c-3.834,0-7.117-1.316-9.851-3.95
		c-2.733-2.566-4.1-5.684-4.1-9.35H319c0,1.166,0.483,2.166,1.45,3c0.967,0.8,2.116,1.199,3.45,1.199
		c1.399,0,2.583-0.399,3.55-1.199c0.967-0.834,1.45-1.834,1.45-3c0-1.101-0.334-1.9-1-2.4c-0.767-0.566-2.517-1.233-5.25-2
		c-3.7-1.033-6.417-2.184-8.15-3.45c-3.033-2.2-4.55-5.383-4.55-9.55c0-3.633,1.366-6.75,4.1-9.35s6.017-3.9,9.851-3.9
		c3.899,0,7.216,1.3,9.949,3.9s4.101,5.717,4.101,9.35h-9.05c0-1.133-0.483-2.117-1.45-2.95c-0.967-0.8-2.15-1.2-3.55-1.2
		c-1.334,0-2.483,0.4-3.45,1.2c-0.967,0.833-1.45,1.817-1.45,2.95C319,100.567,319.316,101.367,319.95,101.9z"/>
	<polygon fill-rule="evenodd" clip-rule="evenodd" fill="#2479BF" points="168.1,62.45 95.35,20.45 95.35,0.45 168.1,42.45 	"/>
	<polygon fill-rule="evenodd" clip-rule="evenodd" fill="#4990CD" points="95.35,20.45 168.1,62.45 93.9,105.25 21.15,63.3 	"/>
	<polygon fill-rule="evenodd" clip-rule="evenodd" fill="#99CA3C" points="180.9,157.35 108.25,199.2 108.1,113.8 180.8,71.9 	"/>
	<polygon fill-rule="evenodd" clip-rule="evenodd" fill="#EB7824" points="20.05,76.75 20.05,160.75 11.4,160.75 1.25,160.75 
		1.25,76.75 11.4,76.75 	"/>
	<polygon fill-rule="evenodd" clip-rule="evenodd" fill="#70943D" points="108.25,199.2 180.9,157.35 207.2,157.35 134.55,199.2 	
		"/>
	<polygon fill-rule="evenodd" clip-rule="evenodd" fill="#F89939" points="20.05,76.75 94.25,119.6 94.25,203.6 20.05,160.75 	"/>
</g>
</svg>
